
Log Entry : 11:20:09 segunda-feira, 22 de janeiro de 2018
  :Erro: UPDATE command denied to user 'hipfatweb'@'191.205.247.54' for table 'fatchm'
. Durante tentativa de atualizar chamado: 297341
-------------------------------

Log Entry : 11:20:09 segunda-feira, 22 de janeiro de 2018
  :Erro: UPDATE command denied to user 'hipfatweb'@'191.205.247.54' for table 'fatchm'
. Durante tentativa de atualizar chamado: 301511
-------------------------------

Log Entry : 11:42:48 segunda-feira, 22 de janeiro de 2018
  :Erro: UPDATE command denied to user 'hipfatweb'@'191.205.247.54' for table 'fatchm'
. Durante tentativa de atualizar chamado: 297341
-------------------------------

Log Entry : 11:42:48 segunda-feira, 22 de janeiro de 2018
  :Erro: UPDATE command denied to user 'hipfatweb'@'191.205.247.54' for table 'fatchm'
. Durante tentativa de atualizar chamado: 301511
-------------------------------

Log Entry : 13:59:41 segunda-feira, 22 de janeiro de 2018
  :Erro: UPDATE command denied to user 'hipfatweb'@'191.205.247.54' for table 'fatchm'
. Durante tentativa de atualizar chamado: 297341
-------------------------------

Log Entry : 13:59:41 segunda-feira, 22 de janeiro de 2018
  :Erro: UPDATE command denied to user 'hipfatweb'@'191.205.247.54' for table 'fatchm'
. Durante tentativa de atualizar chamado: 301511
-------------------------------

Log Entry : 13:59:41 segunda-feira, 22 de janeiro de 2018
  :Erro: UPDATE command denied to user 'hipfatweb'@'191.205.247.54' for table 'fatchm'
. Durante tentativa de atualizar chamado: 301934
-------------------------------

Log Entry : 17:14:50 segunda-feira, 22 de janeiro de 2018
  :Data de abertura do chamado: 301985 menor que a de hoje. 2018-01-17
-------------------------------

Log Entry : 17:14:58 segunda-feira, 22 de janeiro de 2018
  :Erro: UPDATE command denied to user 'hipfatweb'@'191.205.247.54' for table 'fatchm'
. Durante tentativa de atualizar chamado: 297341
-------------------------------

Log Entry : 17:14:58 segunda-feira, 22 de janeiro de 2018
  :Erro: UPDATE command denied to user 'hipfatweb'@'191.205.247.54' for table 'fatchm'
. Durante tentativa de atualizar chamado: 301511
-------------------------------

Log Entry : 17:14:58 segunda-feira, 22 de janeiro de 2018
  :Erro: UPDATE command denied to user 'hipfatweb'@'191.205.247.54' for table 'fatchm'
. Durante tentativa de atualizar chamado: 301934
-------------------------------

Log Entry : 17:58:54 segunda-feira, 22 de janeiro de 2018
  :Cliente id = 1989 não cadastrado no UMOV.
-------------------------------

Log Entry : 17:58:55 segunda-feira, 22 de janeiro de 2018
  :Cliente id = 1990 não cadastrado no UMOV.
-------------------------------

Log Entry : 17:58:56 segunda-feira, 22 de janeiro de 2018
  :Erro: UPDATE command denied to user 'hipfatweb'@'191.205.247.54' for table 'fatchm'
. Durante tentativa de atualizar chamado: 297341
-------------------------------

Log Entry : 17:58:56 segunda-feira, 22 de janeiro de 2018
  :Erro: UPDATE command denied to user 'hipfatweb'@'191.205.247.54' for table 'fatchm'
. Durante tentativa de atualizar chamado: 301511
-------------------------------

Log Entry : 17:58:56 segunda-feira, 22 de janeiro de 2018
  :Erro: UPDATE command denied to user 'hipfatweb'@'191.205.247.54' for table 'fatchm'
. Durante tentativa de atualizar chamado: 301934
-------------------------------
