
Log Entry : 16:41:22 quinta-feira, 18 de janeiro de 2018
  :Cliente id = 1961 não cadastrado no UMOV.
-------------------------------

Log Entry : 16:42:00 quinta-feira, 18 de janeiro de 2018
  :Cliente id = 1988 não cadastrado no UMOV.
-------------------------------

Log Entry : 16:42:01 quinta-feira, 18 de janeiro de 2018
  :Cliente id = 1083 não cadastrado no UMOV.
-------------------------------

Log Entry : 16:42:02 quinta-feira, 18 de janeiro de 2018
  :Cliente id = 1180 não cadastrado no UMOV.
-------------------------------
