﻿
Log Entry : 14:26:27 sexta-feira, 19 de janeiro de 2018
  :Data de abertura do chamado: 301704 menor que a de hoje. 2018-01-18
-------------------------------

Log Entry : 14:26:31 sexta-feira, 19 de janeiro de 2018
  :ERRO AO REALIZAR POST: 
Method: POST, RequestUri: 'https://api.umov.me/CenterWeb/api/18693ea5596ed0434f2418a9f235c73e46d31a/schedule.xml', Version: 1.1, Content: System.Net.Http.StringContent, Headers:
{
  Accept: application/x-www-form-urlencoded
  Content-Type: application/x-www-form-urlencoded
  Content-Length: 314
}
-------------------------------

Log Entry : 14:28:17 sexta-feira, 19 de janeiro de 2018
  :Data de abertura do chamado: 301704 menor que a de hoje. 2018-01-18
-------------------------------

Log Entry : 14:28:20 sexta-feira, 19 de janeiro de 2018
  :ERRO AO REALIZAR POST: 
Method: POST, RequestUri: 'https://api.umov.me/CenterWeb/api/18693ea5596ed0434f2418a9f235c73e46d31a/schedule.xml', Version: 1.1, Content: System.Net.Http.StringContent, Headers:
{
  Accept: application/x-www-form-urlencoded
  Content-Type: application/x-www-form-urlencoded
  Content-Length: 314
}
-------------------------------

Log Entry : 14:30:23 sexta-feira, 19 de janeiro de 2018
  :Data de abertura do chamado: 301704 menor que a de hoje. 2018-01-18
-------------------------------

Log Entry : 14:30:26 sexta-feira, 19 de janeiro de 2018
  :ERRO AO REALIZAR POST: 
Method: POST, RequestUri: 'https://api.umov.me/CenterWeb/api/18693ea5596ed0434f2418a9f235c73e46d31a/schedule.xml', Version: 1.1, Content: System.Net.Http.StringContent, Headers:
{
  Accept: application/x-www-form-urlencoded
  Content-Type: application/x-www-form-urlencoded
  Content-Length: 314
}
-------------------------------

Log Entry : 14:32:21 sexta-feira, 19 de janeiro de 2018
  :Data de abertura do chamado: 301704 menor que a de hoje. 2018-01-18
-------------------------------

Log Entry : 14:32:26 sexta-feira, 19 de janeiro de 2018
  :ERRO AO REALIZAR POST: 
Method: POST, RequestUri: 'https://api.umov.me/CenterWeb/api/18693ea5596ed0434f2418a9f235c73e46d31a/schedule.xml', Version: 1.1, Content: System.Net.Http.StringContent, Headers:
{
  Accept: application/x-www-form-urlencoded
  Content-Type: application/x-www-form-urlencoded
  Content-Length: 314
}
-------------------------------

Log Entry : 14:34:19 sexta-feira, 19 de janeiro de 2018
  :Data de abertura do chamado: 301704 menor que a de hoje. 2018-01-18
-------------------------------

Log Entry : 14:34:23 sexta-feira, 19 de janeiro de 2018
  :ERRO AO REALIZAR POST: 
Method: POST, RequestUri: 'https://api.umov.me/CenterWeb/api/18693ea5596ed0434f2418a9f235c73e46d31a/schedule.xml', Version: 1.1, Content: System.Net.Http.StringContent, Headers:
{
  Accept: application/x-www-form-urlencoded
  Content-Type: application/x-www-form-urlencoded
  Content-Length: 314
}
-------------------------------

Log Entry : 14:36:18 sexta-feira, 19 de janeiro de 2018
  :Data de abertura do chamado: 301704 menor que a de hoje. 2018-01-18
-------------------------------

Log Entry : 14:36:21 sexta-feira, 19 de janeiro de 2018
  :ERRO AO REALIZAR POST: 
Method: POST, RequestUri: 'https://api.umov.me/CenterWeb/api/18693ea5596ed0434f2418a9f235c73e46d31a/schedule.xml', Version: 1.1, Content: System.Net.Http.StringContent, Headers:
{
  Accept: application/x-www-form-urlencoded
  Content-Type: application/x-www-form-urlencoded
  Content-Length: 314
}
-------------------------------

Log Entry : 14:38:18 sexta-feira, 19 de janeiro de 2018
  :Data de abertura do chamado: 301704 menor que a de hoje. 2018-01-18
-------------------------------

Log Entry : 14:38:21 sexta-feira, 19 de janeiro de 2018
  :ERRO AO REALIZAR POST: 
Method: POST, RequestUri: 'https://api.umov.me/CenterWeb/api/18693ea5596ed0434f2418a9f235c73e46d31a/schedule.xml', Version: 1.1, Content: System.Net.Http.StringContent, Headers:
{
  Accept: application/x-www-form-urlencoded
  Content-Type: application/x-www-form-urlencoded
  Content-Length: 314
}
-------------------------------

Log Entry : 14:40:17 sexta-feira, 19 de janeiro de 2018
  :Data de abertura do chamado: 301704 menor que a de hoje. 2018-01-18
-------------------------------

Log Entry : 14:40:19 sexta-feira, 19 de janeiro de 2018
  :ERRO AO REALIZAR POST: 
Method: POST, RequestUri: 'https://api.umov.me/CenterWeb/api/18693ea5596ed0434f2418a9f235c73e46d31a/schedule.xml', Version: 1.1, Content: System.Net.Http.StringContent, Headers:
{
  Accept: application/x-www-form-urlencoded
  Content-Type: application/x-www-form-urlencoded
  Content-Length: 314
}
-------------------------------

Log Entry : 14:42:17 sexta-feira, 19 de janeiro de 2018
  :Data de abertura do chamado: 301704 menor que a de hoje. 2018-01-18
-------------------------------

Log Entry : 14:42:20 sexta-feira, 19 de janeiro de 2018
  :ERRO AO REALIZAR POST: 
Method: POST, RequestUri: 'https://api.umov.me/CenterWeb/api/18693ea5596ed0434f2418a9f235c73e46d31a/schedule.xml', Version: 1.1, Content: System.Net.Http.StringContent, Headers:
{
  Accept: application/x-www-form-urlencoded
  Content-Type: application/x-www-form-urlencoded
  Content-Length: 314
}
-------------------------------

Log Entry : 14:44:17 sexta-feira, 19 de janeiro de 2018
  :Data de abertura do chamado: 301704 menor que a de hoje. 2018-01-18
-------------------------------

Log Entry : 14:44:20 sexta-feira, 19 de janeiro de 2018
  :ERRO AO REALIZAR POST: 
Method: POST, RequestUri: 'https://api.umov.me/CenterWeb/api/18693ea5596ed0434f2418a9f235c73e46d31a/schedule.xml', Version: 1.1, Content: System.Net.Http.StringContent, Headers:
{
  Accept: application/x-www-form-urlencoded
  Content-Type: application/x-www-form-urlencoded
  Content-Length: 314
}
-------------------------------

Log Entry : 14:46:17 sexta-feira, 19 de janeiro de 2018
  :Data de abertura do chamado: 301704 menor que a de hoje. 2018-01-18
-------------------------------

Log Entry : 14:46:19 sexta-feira, 19 de janeiro de 2018
  :ERRO AO REALIZAR POST: 
Method: POST, RequestUri: 'https://api.umov.me/CenterWeb/api/18693ea5596ed0434f2418a9f235c73e46d31a/schedule.xml', Version: 1.1, Content: System.Net.Http.StringContent, Headers:
{
  Accept: application/x-www-form-urlencoded
  Content-Type: application/x-www-form-urlencoded
  Content-Length: 314
}
-------------------------------

Log Entry : 14:48:17 sexta-feira, 19 de janeiro de 2018
  :Data de abertura do chamado: 301704 menor que a de hoje. 2018-01-18
-------------------------------

Log Entry : 14:48:19 sexta-feira, 19 de janeiro de 2018
  :ERRO AO REALIZAR POST: 
Method: POST, RequestUri: 'https://api.umov.me/CenterWeb/api/18693ea5596ed0434f2418a9f235c73e46d31a/schedule.xml', Version: 1.1, Content: System.Net.Http.StringContent, Headers:
{
  Accept: application/x-www-form-urlencoded
  Content-Type: application/x-www-form-urlencoded
  Content-Length: 314
}
-------------------------------
